<svg width="12" height="12" viewBox="0 0 12 12" fill="none" xmlns="http://www.w3.org/2000/svg">
<g id="&#240;&#159;&#146;&#142;icon" clip-path="url(#clip0_2101_108)">
<path id="Vector" d="M6 8.5C7.38071 8.5 8.5 7.38071 8.5 6C8.5 4.61929 7.38071 3.5 6 3.5C4.61929 3.5 3.5 4.61929 3.5 6C3.5 7.38071 4.61929 8.5 6 8.5Z" stroke="#FFB04B" stroke-linecap="round" stroke-linejoin="round"/>
<path id="Vector_2" d="M6 0.5V1.5" stroke="#FFB04B" stroke-linecap="round" stroke-linejoin="round"/>
<path id="Vector_3" d="M6 10.5V11.5" stroke="#FFB04B" stroke-linecap="round" stroke-linejoin="round"/>
<path id="Vector_4" d="M2.10999 2.10999L2.81999 2.81999" stroke="#FFB04B" stroke-linecap="round" stroke-linejoin="round"/>
<path id="Vector_5" d="M9.18005 9.17999L9.89005 9.88999" stroke="#FFB04B" stroke-linecap="round" stroke-linejoin="round"/>
<path id="Vector_6" d="M0.5 6H1.5" stroke="#FFB04B" stroke-linecap="round" stroke-linejoin="round"/>
<path id="Vector_7" d="M10.5 6H11.5" stroke="#FFB04B" stroke-linecap="round" stroke-linejoin="round"/>
<path id="Vector_8" d="M2.10999 9.88999L2.81999 9.17999" stroke="#FFB04B" stroke-linecap="round" stroke-linejoin="round"/>
<path id="Vector_9" d="M9.18005 2.81999L9.89005 2.10999" stroke="#FFB04B" stroke-linecap="round" stroke-linejoin="round"/>
</g>
<defs>
<clipPath id="clip0_2101_108">
<rect width="12" height="12" fill="white"/>
</clipPath>
</defs>
</svg>
